RowId,DocumentTitle,Amount,CreatedDate
546,Testing Cloned data,100,10/26/2017 3:24:37 PM
545,Testing Cloned data,100,10/26/2017 11:37:30 AM
544,Testing Cloned data,100,10/26/2017 11:12:31 AM
535,FrTest,100,9/27/2017 2:49:36 AM
523,Test Multi table,188,9/19/2017 11:32:02 AM
522,Test Multi table,188,9/19/2017 10:15:30 AM
521,Test Multi table,188,9/18/2017 5:39:25 PM
520,Test Multi table,188,9/18/2017 5:34:22 PM
519,Test Multi table,188,9/18/2017 5:24:51 PM
518,Test Multi table,188,9/18/2017 5:04:29 PM
517,Test Multi table,188,9/18/2017 4:31:10 PM
516,Test Multi table,188,9/18/2017 4:27:49 PM
515,Missing Keys,100,9/18/2017 3:22:19 PM
514,Testing Multi line Documents,10,9/18/2017 3:20:19 AM
512,Test by shweta,100,9/15/2017 3:34:55 AM
511,Test by shweta,100,9/15/2017 12:51:30 PM
510,Test by shweta,100,9/15/2017 2:36:34 AM
509,Testing Multi line Documents,10,9/14/2017 7:48:05 AM
508,Testing Multi line Documents,10,9/14/2017 7:45:52 AM
507,Testing Multi line Documents,10,9/8/2017 2:44:10 AM
506,Testing Multi line Documents,10,9/8/2017 11:41:48 AM
505,Testing Multi line Documents,10,9/8/2017 11:30:18 AM
504,Testing Multi line Documents,10,9/8/2017 11:17:31 AM
503,Testing Multi line Documents,10,9/8/2017 10:44:43 AM
502,Testing Multi line Documents,10,9/8/2017 10:26:42 AM
501,Testing Multi line Documents,10,9/7/2017 8:37:40 PM
500,Testing Multi line Documents,10,9/7/2017 5:49:58 PM
499,Testing Multi line Documents,10,9/7/2017 5:38:36 PM
498,Testing Multi line Documents,10,9/7/2017 5:21:20 PM
497,Testing Multi line Documents,10,9/4/2017 7:04:22 AM
496,Testing Multi line Documents,10,9/4/2017 4:11:59 PM
495,Testing Multi line Documents,10,9/4/2017 4:04:21 PM
494,Testing Multi line Documents,10,9/4/2017 6:19:08 AM
493,Testing Multi line Documents,10,9/4/2017 5:57:02 AM
492,Testing Multi line Documents,10,9/4/2017 3:15:08 PM
491,Testing Multi line Documents,10,9/4/2017 5:40:30 AM
490,Testing Multi line Documents,10,9/4/2017 5:36:25 AM
489,Testing Multi line Documents,10,9/4/2017 5:29:29 AM
488,Testing Multi line Documents,10,9/4/2017 5:24:14 AM
487,Testing Multi line Documents,10,9/4/2017 2:19:35 PM
484,Testing Multi line Documents,10,8/4/2017 11:47:51 AM
483,Testing Multi line Documents,10,8/3/2017 10:03:23 AM
482,Testing Multi line Documents,10,8/3/2017 9:56:21 AM
481,Testing Multi line Documents,10,8/3/2017 9:52:38 AM
480,Testing Multi line Documents,10,8/2/2017 7:52:52 AM
479,Testing Multi line Documents,10,8/2/2017 7:35:55 AM
443,Testing Multi line Documents,10,7/31/2017 12:43:39 PM
442,Testing Multi line Documents,10,7/31/2017 12:40:27 PM
414,Multiline Document,100,7/27/2017 1:18:22 AM
413,Multiline Document,100,7/27/2017 1:16:50 AM
412,Multiline Document,100,7/27/2017 1:14:42 AM
411,Multiline Document,100,7/27/2017 1:13:08 AM
410,Multiline Document,100,7/27/2017 1:10:15 AM
409,Multiline Document,100,7/27/2017 12:50:41 AM
408,MultiLine Keys,0,7/27/2017 12:47:43 AM
407,MultiLine Keys,0,7/27/2017 12:44:54 AM
406,Multiline Document,100,7/26/2017 11:47:59 PM
405,Multiline Document,100,7/26/2017 6:05:02 AM
398,Salary Review ,20000,7/14/2017 4:36:47 AM
397,Laptop Agreement,1900,7/14/2017 3:44:08 AM
396,Laptop Agreement,1900,7/14/2017 2:20:08 AM
395,Laptop Agreement,1900,7/14/2017 2:09:25 AM
394,Laptop Agreement,1900,7/14/2017 1:22:04 AM
393,Laptop Agreement,1900,7/14/2017 12:46:05 AM
392,Laptop Agreement,1900,7/14/2017 12:44:46 AM
391,Laptop Agreement,1900,7/14/2017 12:43:42 AM
390,Laptop Agreement,1900,7/12/2017 1:20:55 AM
389,Laptop Agreement,1900,7/10/2017 2:20:01 AM
388,Laptop Agreement,1900,7/10/2017 2:05:55 AM
387,Laptop Agreement,1900,7/6/2017 2:13:06 AM
386,Laptop Agreement,1900,7/6/2017 2:12:00 AM
161,Laptop Agreement,10000,3/30/2017 3:05:19 AM
158,Laptop Agreement,10000,3/28/2017 7:47:18 AM
157,Laptop Agreement,10000,3/28/2017 7:46:23 AM
156,Laptop Agreement,10000,3/28/2017 7:45:28 AM
155,Laptop Agreement,10000,3/28/2017 7:38:22 AM
154,Laptop Agreement,10000,3/28/2017 7:20:39 AM
153,Laptop Agreement,10000,3/28/2017 7:18:07 AM
143,Laptop Agreement,10000,3/23/2017 2:58:34 AM
142,Laptop Agreement,10000,3/23/2017 2:54:35 AM
141,Laptop Agreement,10000,3/23/2017 2:53:54 AM
140,Laptop Agreement,10000,3/22/2017 4:47:18 AM
139,Personal Home Loan agreement,8000,3/21/2017 5:53:26 AM
134,Employment Letter,2000,3/20/2017 12:21:42 AM
133,Laptop Agreement,10000,3/19/2017 11:49:56 PM
123,Salary Review,5000,3/17/2017 5:36:23 AM
122,Laptop Agreement,10000,3/17/2017 5:34:38 AM
